2019 Milwaukee Brewers

Batters
--------------
C,Yasmani Grandal#\grandya01,153,632,513,26,2,28,5,109,139,0.246,5
1B,Eric Thames*\thameer01,149,459,396,23,2,25,3,51,140,0.247,10
2B,Keston Hiura\hiurake01,84,348,314,23,2,19,9,25,107,0.303,8
SS,Orlando Arcia\arciaor01,152,546,494,16,1,15,8,43,109,0.223,1
3B,Mike Moustakas*\moustmi01,143,584,523,30,1,35,3,53,98,0.254,6
LF,Ryan Braun\braunry02,144,508,459,31,2,22,11,34,105,0.285,8
CF,Lorenzo Cain\cainlo01,148,623,562,30,0,11,18,50,106,0.26,6
RF,Christian Yelich*\yelicch01,130,580,489,29,3,44,30,80,118,0.329,8
OF,Ben Gamel*\gamelbe01,134,356,311,18,0,7,2,40,104,0.248,3
3B,Travis Shaw*\shawtr01,86,270,230,5,0,7,0,36,89,0.157,4
1B,Jesus Aguilar\aguilje01,94,262,222,9,0,8,0,31,59,0.225,2
2B,Hernan Perez\perezhe01,91,246,232,11,0,8,5,11,66,0.228,0
OF,Trent Grisham*\grishtr01,51,183,156,6,2,6,1,20,48,0.231,4
C,Manny Pina\pinama01,76,179,158,8,0,7,0,16,50,0.228,4
2B,Cory Spangenberg*\spangco01,32,102,95,2,2,2,3,6,36,0.232,0
UT,Tyler Saladino\saladty01,28,71,65,0,0,2,2,5,26,0.123,1
1B,Tyler Austin\austity01,17,27,20,2,0,1,1,6,7,0.2,0
 ,David Freitas\freitda01,16,16,13,0,0,0,0,3,5,0.077,0
OF,Tyrone Taylor\tayloty01,15,12,10,2,0,0,0,1,1,0.4,1
UT,Jacob Nottingham\nottija01,9,7,6,0,0,1,0,0,2,0.333,1
SS,Mauricio Dubon\dubonma01,2,2,2,0,0,0,0,0,1,0.0,0
P,Zach Davies\davieza02,34,55,52,2,0,0,0,1,25,0.154,0
P,Brandon Woodruff*\woodrbr01,25,49,45,4,0,0,0,1,20,0.267,0
P,Chase Anderson\anderch01,31,44,40,1,0,0,0,2,24,0.1,0
P,Gio Gonzalez\gonzagi01,18,28,25,0,0,0,0,1,17,0.04,0
P,Adrian Houser\housead01,32,27,22,1,0,0,0,2,17,0.045,0
P,Jhoulys Chacin\chacijh01,18,25,24,0,0,1,0,1,10,0.125,0
P,Jordan Lyles\lylesjo01,10,22,20,0,0,0,0,1,12,0.1,0
P,Freddy Peralta\peralfr01,37,16,15,0,0,0,0,0,6,0.133,0
P,Corbin Burnes\burneco01,30,8,7,0,0,0,0,0,2,0.286,0
P,Aaron Wilkerson\wilkeaa01,8,3,3,0,0,1,0,0,1,0.333,0
P,Junior Guerra\guerrju02,65,3,3,0,0,0,0,0,2,0.333,0
P,Jimmy Nelson\nelsoji02,10,3,3,0,0,0,0,0,3,0.0,0
P,Josh Hader*\haderjo01,56,2,2,0,0,0,0,0,1,0.0,0
P,Drew Pomeranz\pomerdr01,25,2,2,0,0,0,0,0,0,0.0,0
P,Jay Jackson\jacksja01,27,2,2,0,0,0,0,0,2,0.0,0
P,Brent Suter*\suterbr01,9,2,2,0,0,0,0,0,1,0.0,0
P,Jeremy Jeffress\jeffrje01,45,1,1,0,0,0,0,0,1,0.0,0
P,Taylor Williams#\willita01,12,1,1,0,0,0,0,0,1,0.0,0
P,Devin Williams\willide03,13,1,1,0,0,0,0,0,1,0.0,0
P,Burch Smith\smithbu03,7,1,1,0,0,0,0,0,1,0.0,0
P,Donnie Hart*\hartdo01,4,1,1,0,0,0,0,0,0,0.0,0
P,Deolis Guerra\guerrde01,1,0,0,0,0,0,0,0,0,0.0,0
P,Jake Faria\fariaja01,9,0,0,0,0,0,0,0,0,0.0,0
P,Alex Claudio*\claudal01,78,0,0,0,0,0,0,0,0,0.0,0
P,Alex Wilson\wilsoal01,11,0,0,0,0,0,0,0,0,0.0,0
P,Jake Petricka\petrija01,5,0,0,0,0,0,0,0,0,0.0,0
P,Matt Albers*\alberma01,63,0,0,0,0,0,0,0,0,0.0,0
P,Ray Black\blackra01,15,0,0,0,0,0,0,0,0,0.0,0
P,Jacob Barnes\barneja01,16,0,0,0,0,0,0,0,0,0.0,0

Pitchers
--------------
SP,Zach Davies\davieza02,3.55,31,31,159.2,51,102
SP,Chase Anderson\anderch01,4.21,32,27,139.0,50,124
SP,Brandon Woodruff\woodrbr01,3.62,22,22,121.2,30,143
SP,Adrian Houser\housead01,3.72,35,18,111.1,37,117
SP,Jhoulys Chacin\chacijh01,5.79,19,19,88.2,39,80
SP,Gio Gonzalez*\gonzagi01,3.5,19,17,87.1,37,78
CL,Josh Hader*\haderjo01,2.62,61,0,75.2,20,138
RP,Junior Guerra\guerrju02,3.55,72,0,83.2,36,77
RP,Alex Claudio*\claudal01,4.06,83,0,62.0,24,44
RP,Matt Albers\alberma01,5.13,67,0,59.2,29,57
RP,Jeremy Jeffress\jeffrje01,5.02,48,0,52.0,17,46
,Freddy Peralta\peralfr01,5.29,39,8,85.0,37,115
,Jordan Lyles\lylesjo01,2.45,11,11,58.2,22,56
,Corbin Burnes\burneco01,8.82,32,4,49.0,20,70
,Jay Jackson\jacksja01,4.45,28,0,30.1,18,47
,Drew Pomeranz*\pomerdr01,2.39,25,1,26.1,8,45
,Jimmy Nelson\nelsoji02,6.95,10,3,22.0,17,26
,Jacob Barnes\barneja01,6.86,18,1,19.2,11,22
,Brent Suter*\suterbr01,0.49,9,0,18.1,1,15
,Aaron Wilkerson\wilkeaa01,7.31,8,0,16.0,9,11
,Taylor Williams\willita01,9.82,10,0,14.2,7,15
,Ray Black\blackra01,5.14,15,0,14.0,8,13
,Devin Williams\willide03,3.95,13,0,13.2,6,14
,Burch Smith\smithbu03,7.82,7,0,12.2,10,14
,Alex Wilson\wilsoal01,9.53,13,0,11.1,9,13
,Jake Faria\fariaja01,11.42,9,0,8.2,5,8
,Jake Petricka\petrija01,3.38,6,0,8.0,6,3
,Donnie Hart*\hartdo01,0.0,4,0,6.2,4,3
,Hernan Perez\perezhe01,3.0,3,0,3.0,2,1
,Deolis Guerra\guerrde01,54.0,1,0,0.2,0,0

Service Time
--------------
Jesus Aguilar\aguilje01,6
Matt Albers\alberma01,14
Chase Anderson\anderch01,6
Orlando Arcia\arciaor01,4
Tyler Austin\austity01,4
Jacob Barnes\barneja01,4
Ray Black\blackra01,2
Ryan Braun\braunry02,13
Corbin Burnes\burneco01,2
Lorenzo Cain\cainlo01,10
Jhoulys Chacin\chacijh01,11
Alex Claudio\claudal01,6
Zach Davies\davieza02,5
Mauricio Dubon\dubonma01,1st
Jake Faria\fariaja01,3
David Freitas\freitda01,3
Ben Gamel\gamelbe01,4
Gio Gonzalez\gonzagi01,12
Yasmani Grandal\grandya01,8
Trent Grisham\grishtr01,1st
Deolis Guerra\guerrde01,4
Junior Guerra\guerrju02,5
Josh Hader\haderjo01,3
Donnie Hart\hartdo01,4
Keston Hiura\hiurake01,1st
Adrian Houser\housead01,3
Jay Jackson\jacksja01,2
Jeremy Jeffress\jeffrje01,10
Jordan Lyles\lylesjo01,9
Mike Moustakas\moustmi01,9
Jimmy Nelson\nelsoji02,6
Jacob Nottingham\nottija01,2
Freddy Peralta\peralfr01,2
Hernan Perez\perezhe01,8
Jake Petricka\petrija01,7
Manny Pina\pinama01,6
Drew Pomeranz\pomerdr01,9
Tyler Saladino\saladty01,5
Travis Shaw\shawtr01,5
Burch Smith\smithbu03,3
Cory Spangenberg\spangco01,6
Brent Suter\suterbr01,4
Tyrone Taylor\tayloty01,1st
Eric Thames\thameer01,5
Aaron Wilkerson\wilkeaa01,3
Devin Williams\willide03,1st
Taylor Williams\willita01,3
Alex Wilson\wilsoal01,7
Brandon Woodruff\woodrbr01,3
Christian Yelich\yelicch01,7

Fielders
--------------
Jesus Aguilar\aguilje01,61,444,.991,14
Matt Albers\alberma01,67,6,1.000,
Chase Anderson\anderch01,32,20,.950,
Orlando Arcia\arciaor01,150,572,.976,-3
Tyler Austin\austity01,9,24,.958,-11
Jacob Barnes\barneja01,18,2,1.000,
Ray Black\blackra01,15,3,1.000,
Ryan Braun\braunry02,112,166,.970,-5
Corbin Burnes\burneco01,32,14,.857,
Lorenzo Cain\cainlo01,144,313,.994,-5
Jhoulys Chacin\chacijh01,19,16,1.000,
Alex Claudio\claudal01,83,20,1.000,
Zach Davies\davieza02,31,34,.912,
Mauricio Dubon\dubonma01,1,0,,0
Jake Faria\fariaja01,9,0,,
Ben Gamel\gamelbe01,108,151,.993,4
Gio Gonzalez\gonzagi01,19,18,.944,
Yasmani Grandal\grandya01,149,1341,.993,3
Trent Grisham\grishtr01,42,70,1.000,-9
Deolis Guerra\guerrde01,1,0,,
Junior Guerra\guerrju02,72,12,1.000,
Josh Hader\haderjo01,61,7,1.000,
Donnie Hart\hartdo01,4,1,1.000,
Keston Hiura\hiurake01,81,314,.949,-18
Adrian Houser\housead01,35,13,.923,
Jay Jackson\jacksja01,28,3,1.000,
Jeremy Jeffress\jeffrje01,48,16,1.000,
Jordan Lyles\lylesjo01,11,6,.833,
Mike Moustakas\moustmi01,139,380,.968,2
Jimmy Nelson\nelsoji02,10,2,.500,
Jacob Nottingham\nottija01,7,14,.929,-42
Freddy Peralta\peralfr01,39,8,1.000,
Hernan Perez\perezhe01,86,222,.986,-1
Jake Petricka\petrija01,6,2,1.000,
Manny Pina\pinama01,54,371,.984,2
Drew Pomeranz\pomerdr01,25,1,1.000,
Tyler Saladino\saladty01,23,62,.984,23
Travis Shaw\shawtr01,75,160,.981,0
Burch Smith\smithbu03,7,2,1.000,
Cory Spangenberg\spangco01,32,88,.989,21
Brent Suter\suterbr01,9,5,.800,
Tyrone Taylor\tayloty01,11,7,1.000,-56
Eric Thames\thameer01,113,698,.996,3
Aaron Wilkerson\wilkeaa01,8,2,1.000,
Devin Williams\willide03,13,0,,
Taylor Williams\willita01,10,7,1.000,
Alex Wilson\wilsoal01,13,2,1.000,
Brandon Woodruff\woodrbr01,22,15,1.000,
Christian Yelich\yelicch01,125,236,.983,6

